[01-May-2019 15:39:02 Europe/Berlin] Uncaught exception: 'Exception' with message 'Method aaAction not found in controller App\Controllers\Posts'
Stack trace: #0 C:\xampp\htdocs\Vectus_tasks\php-mvc\Core\Router.php(110): Core\Controller->__call('aa', Array)
#1 C:\xampp\htdocs\Vectus_tasks\php-mvc\public\index.php(35): Core\Router->dispatch('posts/aa')
#2 {main}
Thrown in 'C:\xampp\htdocs\Vectus_tasks\php-mvc\Core\Controller.php' on line 46
[01-May-2019 15:39:02 Europe/Berlin] Uncaught exception: 'Exception' with message 'No route matched.'
Stack trace: #0 C:\xampp\htdocs\Vectus_tasks\php-mvc\public\index.php(35): Core\Router->dispatch('favicon.ico')
#1 {main}
Thrown in 'C:\xampp\htdocs\Vectus_tasks\php-mvc\Core\Router.php' on line 118
[01-May-2019 16:12:28 Europe/Berlin] Uncaught exception: 'Exception' with message 'No route matched.'
Stack trace: #0 C:\xampp\htdocs\Vectus_tasks\php-mvc\public\index.php(35): Core\Router->dispatch('as')
#1 {main}
Thrown in 'C:\xampp\htdocs\Vectus_tasks\php-mvc\Core\Router.php' on line 118
[01-May-2019 16:12:31 Europe/Berlin] Uncaught exception: 'Exception' with message 'No route matched.'
Stack trace: #0 C:\xampp\htdocs\Vectus_tasks\php-mvc\public\index.php(35): Core\Router->dispatch('as')
#1 {main}
Thrown in 'C:\xampp\htdocs\Vectus_tasks\php-mvc\Core\Router.php' on line 118
[01-May-2019 16:12:36 Europe/Berlin] Uncaught exception: 'Exception' with message 'Method aaAction not found in controller App\Controllers\Posts'
Stack trace: #0 C:\xampp\htdocs\Vectus_tasks\php-mvc\Core\Router.php(110): Core\Controller->__call('aa', Array)
#1 C:\xampp\htdocs\Vectus_tasks\php-mvc\public\index.php(35): Core\Router->dispatch('posts/aa')
#2 {main}
Thrown in 'C:\xampp\htdocs\Vectus_tasks\php-mvc\Core\Controller.php' on line 46
[01-May-2019 17:56:24 Europe/Berlin] Uncaught exception: 'Exception' with message 'No route matched.'
Stack trace: #0 C:\xampp\htdocs\Vectus_tasks\php-mvc\public\index.php(35): Core\Router->dispatch('favicon.ico')
#1 {main}
Thrown in 'C:\xampp\htdocs\Vectus_tasks\php-mvc\Core\Router.php' on line 118
[01-May-2019 21:56:45 Europe/Berlin] Uncaught exception: 'Exception' with message 'Controller class App\Controllers\User not found'
Stack trace: #0 C:\xampp\htdocs\Vectus_tasks\phonebook\public\index.php(35): Core\Router->dispatch('user/index')
#1 {main}
Thrown in 'C:\xampp\htdocs\Vectus_tasks\phonebook\Core\Router.php' on line 115
[01-May-2019 21:57:31 Europe/Berlin] Uncaught exception: 'Exception' with message 'Controller class App\Controllers\User not found'
Stack trace: #0 C:\xampp\htdocs\Vectus_tasks\phonebook\public\index.php(34): Core\Router->dispatch('user/index')
#1 {main}
Thrown in 'C:\xampp\htdocs\Vectus_tasks\phonebook\Core\Router.php' on line 115
[01-May-2019 21:57:33 Europe/Berlin] Uncaught exception: 'Exception' with message 'Controller class App\Controllers\User not found'
Stack trace: #0 C:\xampp\htdocs\Vectus_tasks\phonebook\public\index.php(34): Core\Router->dispatch('user/index')
#1 {main}
Thrown in 'C:\xampp\htdocs\Vectus_tasks\phonebook\Core\Router.php' on line 115
[01-May-2019 21:57:34 Europe/Berlin] Uncaught exception: 'Exception' with message 'Controller class App\Controllers\User not found'
Stack trace: #0 C:\xampp\htdocs\Vectus_tasks\phonebook\public\index.php(34): Core\Router->dispatch('user/index')
#1 {main}
Thrown in 'C:\xampp\htdocs\Vectus_tasks\phonebook\Core\Router.php' on line 115
[01-May-2019 21:58:01 Europe/Berlin] Uncaught exception: 'Exception' with message 'Controller class App\Controllers\User not found'
Stack trace: #0 C:\xampp\htdocs\Vectus_tasks\phonebook\public\index.php(34): Core\Router->dispatch('user/index')
#1 {main}
Thrown in 'C:\xampp\htdocs\Vectus_tasks\phonebook\Core\Router.php' on line 115
[01-May-2019 21:58:03 Europe/Berlin] Uncaught exception: 'Exception' with message 'Controller class App\Controllers\User not found'
Stack trace: #0 C:\xampp\htdocs\Vectus_tasks\phonebook\public\index.php(34): Core\Router->dispatch('user/index')
#1 {main}
Thrown in 'C:\xampp\htdocs\Vectus_tasks\phonebook\Core\Router.php' on line 115
[01-May-2019 21:58:04 Europe/Berlin] Uncaught exception: 'Exception' with message 'Controller class App\Controllers\User not found'
Stack trace: #0 C:\xampp\htdocs\Vectus_tasks\phonebook\public\index.php(34): Core\Router->dispatch('user/index')
#1 {main}
Thrown in 'C:\xampp\htdocs\Vectus_tasks\phonebook\Core\Router.php' on line 115
[01-May-2019 21:58:26 Europe/Berlin] Uncaught exception: 'Exception' with message 'Controller class App\Controllers\User not found'
Stack trace: #0 C:\xampp\htdocs\Vectus_tasks\phonebook\public\index.php(34): Core\Router->dispatch('user/index')
#1 {main}
Thrown in 'C:\xampp\htdocs\Vectus_tasks\phonebook\Core\Router.php' on line 115
[01-May-2019 21:58:26 Europe/Berlin] Uncaught exception: 'Exception' with message 'Controller class App\Controllers\Users not found'
Stack trace: #0 C:\xampp\htdocs\Vectus_tasks\phonebook\public\index.php(34): Core\Router->dispatch('users/index')
#1 {main}
Thrown in 'C:\xampp\htdocs\Vectus_tasks\phonebook\Core\Router.php' on line 115
[01-May-2019 21:58:28 Europe/Berlin] Uncaught exception: 'Exception' with message 'Controller class App\Controllers\Users not found'
Stack trace: #0 C:\xampp\htdocs\Vectus_tasks\phonebook\public\index.php(34): Core\Router->dispatch('users/index')
#1 {main}
Thrown in 'C:\xampp\htdocs\Vectus_tasks\phonebook\Core\Router.php' on line 115
[01-May-2019 21:58:29 Europe/Berlin] Uncaught exception: 'Exception' with message 'Controller class App\Controllers\Users not found'
Stack trace: #0 C:\xampp\htdocs\Vectus_tasks\phonebook\public\index.php(34): Core\Router->dispatch('users/index')
#1 {main}
Thrown in 'C:\xampp\htdocs\Vectus_tasks\phonebook\Core\Router.php' on line 115
[01-May-2019 21:58:30 Europe/Berlin] Uncaught exception: 'Exception' with message 'Controller class App\Controllers\Users not found'
Stack trace: #0 C:\xampp\htdocs\Vectus_tasks\phonebook\public\index.php(34): Core\Router->dispatch('users/index')
#1 {main}
Thrown in 'C:\xampp\htdocs\Vectus_tasks\phonebook\Core\Router.php' on line 115
[01-May-2019 21:58:31 Europe/Berlin] Uncaught exception: 'Exception' with message 'Controller class App\Controllers\Users not found'
Stack trace: #0 C:\xampp\htdocs\Vectus_tasks\phonebook\public\index.php(34): Core\Router->dispatch('users/index')
#1 {main}
Thrown in 'C:\xampp\htdocs\Vectus_tasks\phonebook\Core\Router.php' on line 115
[01-May-2019 21:58:32 Europe/Berlin] Uncaught exception: 'Exception' with message 'Controller class App\Controllers\Users not found'
Stack trace: #0 C:\xampp\htdocs\Vectus_tasks\phonebook\public\index.php(34): Core\Router->dispatch('users/index')
#1 {main}
Thrown in 'C:\xampp\htdocs\Vectus_tasks\phonebook\Core\Router.php' on line 115
[01-May-2019 21:58:52 Europe/Berlin] Uncaught exception: 'Twig\Error\LoaderError' with message 'Unable to find template "Posts/index.html" (looked into: ../App/Views).'
Stack trace: #0 C:\xampp\htdocs\Vectus_tasks\phonebook\vendor\twig\twig\src\Loader\FilesystemLoader.php(150): Twig\Loader\FilesystemLoader->findTemplate('Posts/index.htm...')
#1 C:\xampp\htdocs\Vectus_tasks\phonebook\vendor\twig\twig\src\Environment.php(299): Twig\Loader\FilesystemLoader->getCacheKey('Posts/index.htm...')
#2 C:\xampp\htdocs\Vectus_tasks\phonebook\vendor\twig\twig\src\Environment.php(381): Twig\Environment->getTemplateClass('Posts/index.htm...')
#3 C:\xampp\htdocs\Vectus_tasks\phonebook\vendor\twig\twig\src\Environment.php(359): Twig\Environment->loadTemplate('Posts/index.htm...')
#4 C:\xampp\htdocs\Vectus_tasks\phonebook\vendor\twig\twig\src\Environment.php(318): Twig\Environment->load('Posts/index.htm...')
#5 C:\xampp\htdocs\Vectus_tasks\phonebook\Core\View.php(44): Twig\Environment->render('Posts/index.htm...', Array)
#6 C:\xampp\htdocs\Vectus_tasks\phonebook\App\Controllers\Users.php(21): Core\View::renderTemplate('Posts/index.htm...', Array)
#7 [internal function]: App\Controllers\Users->indexAction()
#8 C:\xampp\htdocs\Vectus_tasks\phonebook\Core\Controller.php(42): call_user_func_array(Array, Array)
#9 C:\xampp\htdocs\Vectus_tasks\phonebook\Core\Router.php(110): Core\Controller->__call('index', Array)
#10 C:\xampp\htdocs\Vectus_tasks\phonebook\public\index.php(34): Core\Router->dispatch('users/index')
#11 {main}
Thrown in 'C:\xampp\htdocs\Vectus_tasks\phonebook\vendor\twig\twig\src\Loader\FilesystemLoader.php' on line 250
[01-May-2019 21:58:53 Europe/Berlin] Uncaught exception: 'Twig\Error\LoaderError' with message 'Unable to find template "Posts/index.html" (looked into: ../App/Views).'
Stack trace: #0 C:\xampp\htdocs\Vectus_tasks\phonebook\vendor\twig\twig\src\Loader\FilesystemLoader.php(150): Twig\Loader\FilesystemLoader->findTemplate('Posts/index.htm...')
#1 C:\xampp\htdocs\Vectus_tasks\phonebook\vendor\twig\twig\src\Environment.php(299): Twig\Loader\FilesystemLoader->getCacheKey('Posts/index.htm...')
#2 C:\xampp\htdocs\Vectus_tasks\phonebook\vendor\twig\twig\src\Environment.php(381): Twig\Environment->getTemplateClass('Posts/index.htm...')
#3 C:\xampp\htdocs\Vectus_tasks\phonebook\vendor\twig\twig\src\Environment.php(359): Twig\Environment->loadTemplate('Posts/index.htm...')
#4 C:\xampp\htdocs\Vectus_tasks\phonebook\vendor\twig\twig\src\Environment.php(318): Twig\Environment->load('Posts/index.htm...')
#5 C:\xampp\htdocs\Vectus_tasks\phonebook\Core\View.php(44): Twig\Environment->render('Posts/index.htm...', Array)
#6 C:\xampp\htdocs\Vectus_tasks\phonebook\App\Controllers\Users.php(21): Core\View::renderTemplate('Posts/index.htm...', Array)
#7 [internal function]: App\Controllers\Users->indexAction()
#8 C:\xampp\htdocs\Vectus_tasks\phonebook\Core\Controller.php(42): call_user_func_array(Array, Array)
#9 C:\xampp\htdocs\Vectus_tasks\phonebook\Core\Router.php(110): Core\Controller->__call('index', Array)
#10 C:\xampp\htdocs\Vectus_tasks\phonebook\public\index.php(34): Core\Router->dispatch('users/index')
#11 {main}
Thrown in 'C:\xampp\htdocs\Vectus_tasks\phonebook\vendor\twig\twig\src\Loader\FilesystemLoader.php' on line 250
[01-May-2019 21:58:54 Europe/Berlin] Uncaught exception: 'Twig\Error\LoaderError' with message 'Unable to find template "Posts/index.html" (looked into: ../App/Views).'
Stack trace: #0 C:\xampp\htdocs\Vectus_tasks\phonebook\vendor\twig\twig\src\Loader\FilesystemLoader.php(150): Twig\Loader\FilesystemLoader->findTemplate('Posts/index.htm...')
#1 C:\xampp\htdocs\Vectus_tasks\phonebook\vendor\twig\twig\src\Environment.php(299): Twig\Loader\FilesystemLoader->getCacheKey('Posts/index.htm...')
#2 C:\xampp\htdocs\Vectus_tasks\phonebook\vendor\twig\twig\src\Environment.php(381): Twig\Environment->getTemplateClass('Posts/index.htm...')
#3 C:\xampp\htdocs\Vectus_tasks\phonebook\vendor\twig\twig\src\Environment.php(359): Twig\Environment->loadTemplate('Posts/index.htm...')
#4 C:\xampp\htdocs\Vectus_tasks\phonebook\vendor\twig\twig\src\Environment.php(318): Twig\Environment->load('Posts/index.htm...')
#5 C:\xampp\htdocs\Vectus_tasks\phonebook\Core\View.php(44): Twig\Environment->render('Posts/index.htm...', Array)
#6 C:\xampp\htdocs\Vectus_tasks\phonebook\App\Controllers\Users.php(21): Core\View::renderTemplate('Posts/index.htm...', Array)
#7 [internal function]: App\Controllers\Users->indexAction()
#8 C:\xampp\htdocs\Vectus_tasks\phonebook\Core\Controller.php(42): call_user_func_array(Array, Array)
#9 C:\xampp\htdocs\Vectus_tasks\phonebook\Core\Router.php(110): Core\Controller->__call('index', Array)
#10 C:\xampp\htdocs\Vectus_tasks\phonebook\public\index.php(34): Core\Router->dispatch('users/index')
#11 {main}
Thrown in 'C:\xampp\htdocs\Vectus_tasks\phonebook\vendor\twig\twig\src\Loader\FilesystemLoader.php' on line 250
[01-May-2019 22:01:13 Europe/Berlin] Uncaught exception: 'Twig\Error\LoaderError' with message 'Unable to find template "Posts/index.html" (looked into: ../App/Views).'
Stack trace: #0 C:\xampp\htdocs\Vectus_tasks\phonebook\vendor\twig\twig\src\Loader\FilesystemLoader.php(150): Twig\Loader\FilesystemLoader->findTemplate('Posts/index.htm...')
#1 C:\xampp\htdocs\Vectus_tasks\phonebook\vendor\twig\twig\src\Environment.php(299): Twig\Loader\FilesystemLoader->getCacheKey('Posts/index.htm...')
#2 C:\xampp\htdocs\Vectus_tasks\phonebook\vendor\twig\twig\src\Environment.php(381): Twig\Environment->getTemplateClass('Posts/index.htm...')
#3 C:\xampp\htdocs\Vectus_tasks\phonebook\vendor\twig\twig\src\Environment.php(359): Twig\Environment->loadTemplate('Posts/index.htm...')
#4 C:\xampp\htdocs\Vectus_tasks\phonebook\vendor\twig\twig\src\Environment.php(318): Twig\Environment->load('Posts/index.htm...')
#5 C:\xampp\htdocs\Vectus_tasks\phonebook\Core\View.php(44): Twig\Environment->render('Posts/index.htm...', Array)
#6 C:\xampp\htdocs\Vectus_tasks\phonebook\App\Controllers\Users.php(21): Core\View::renderTemplate('Posts/index.htm...', Array)
#7 [internal function]: App\Controllers\Users->indexAction()
#8 C:\xampp\htdocs\Vectus_tasks\phonebook\Core\Controller.php(42): call_user_func_array(Array, Array)
#9 C:\xampp\htdocs\Vectus_tasks\phonebook\Core\Router.php(110): Core\Controller->__call('index', Array)
#10 C:\xampp\htdocs\Vectus_tasks\phonebook\public\index.php(34): Core\Router->dispatch('users/index')
#11 {main}
Thrown in 'C:\xampp\htdocs\Vectus_tasks\phonebook\vendor\twig\twig\src\Loader\FilesystemLoader.php' on line 250
[01-May-2019 22:01:14 Europe/Berlin] Uncaught exception: 'Twig\Error\LoaderError' with message 'Unable to find template "Posts/index.html" (looked into: ../App/Views).'
Stack trace: #0 C:\xampp\htdocs\Vectus_tasks\phonebook\vendor\twig\twig\src\Loader\FilesystemLoader.php(150): Twig\Loader\FilesystemLoader->findTemplate('Posts/index.htm...')
#1 C:\xampp\htdocs\Vectus_tasks\phonebook\vendor\twig\twig\src\Environment.php(299): Twig\Loader\FilesystemLoader->getCacheKey('Posts/index.htm...')
#2 C:\xampp\htdocs\Vectus_tasks\phonebook\vendor\twig\twig\src\Environment.php(381): Twig\Environment->getTemplateClass('Posts/index.htm...')
#3 C:\xampp\htdocs\Vectus_tasks\phonebook\vendor\twig\twig\src\Environment.php(359): Twig\Environment->loadTemplate('Posts/index.htm...')
#4 C:\xampp\htdocs\Vectus_tasks\phonebook\vendor\twig\twig\src\Environment.php(318): Twig\Environment->load('Posts/index.htm...')
#5 C:\xampp\htdocs\Vectus_tasks\phonebook\Core\View.php(44): Twig\Environment->render('Posts/index.htm...', Array)
#6 C:\xampp\htdocs\Vectus_tasks\phonebook\App\Controllers\Users.php(21): Core\View::renderTemplate('Posts/index.htm...', Array)
#7 [internal function]: App\Controllers\Users->indexAction()
#8 C:\xampp\htdocs\Vectus_tasks\phonebook\Core\Controller.php(42): call_user_func_array(Array, Array)
#9 C:\xampp\htdocs\Vectus_tasks\phonebook\Core\Router.php(110): Core\Controller->__call('index', Array)
#10 C:\xampp\htdocs\Vectus_tasks\phonebook\public\index.php(34): Core\Router->dispatch('users/index')
#11 {main}
Thrown in 'C:\xampp\htdocs\Vectus_tasks\phonebook\vendor\twig\twig\src\Loader\FilesystemLoader.php' on line 250
[01-May-2019 22:01:15 Europe/Berlin] Uncaught exception: 'Twig\Error\LoaderError' with message 'Unable to find template "Posts/index.html" (looked into: ../App/Views).'
Stack trace: #0 C:\xampp\htdocs\Vectus_tasks\phonebook\vendor\twig\twig\src\Loader\FilesystemLoader.php(150): Twig\Loader\FilesystemLoader->findTemplate('Posts/index.htm...')
#1 C:\xampp\htdocs\Vectus_tasks\phonebook\vendor\twig\twig\src\Environment.php(299): Twig\Loader\FilesystemLoader->getCacheKey('Posts/index.htm...')
#2 C:\xampp\htdocs\Vectus_tasks\phonebook\vendor\twig\twig\src\Environment.php(381): Twig\Environment->getTemplateClass('Posts/index.htm...')
#3 C:\xampp\htdocs\Vectus_tasks\phonebook\vendor\twig\twig\src\Environment.php(359): Twig\Environment->loadTemplate('Posts/index.htm...')
#4 C:\xampp\htdocs\Vectus_tasks\phonebook\vendor\twig\twig\src\Environment.php(318): Twig\Environment->load('Posts/index.htm...')
#5 C:\xampp\htdocs\Vectus_tasks\phonebook\Core\View.php(44): Twig\Environment->render('Posts/index.htm...', Array)
#6 C:\xampp\htdocs\Vectus_tasks\phonebook\App\Controllers\Users.php(21): Core\View::renderTemplate('Posts/index.htm...', Array)
#7 [internal function]: App\Controllers\Users->indexAction()
#8 C:\xampp\htdocs\Vectus_tasks\phonebook\Core\Controller.php(42): call_user_func_array(Array, Array)
#9 C:\xampp\htdocs\Vectus_tasks\phonebook\Core\Router.php(110): Core\Controller->__call('index', Array)
#10 C:\xampp\htdocs\Vectus_tasks\phonebook\public\index.php(34): Core\Router->dispatch('users/index')
#11 {main}
Thrown in 'C:\xampp\htdocs\Vectus_tasks\phonebook\vendor\twig\twig\src\Loader\FilesystemLoader.php' on line 250
[01-May-2019 22:01:16 Europe/Berlin] Uncaught exception: 'Twig\Error\LoaderError' with message 'Unable to find template "Posts/index.html" (looked into: ../App/Views).'
Stack trace: #0 C:\xampp\htdocs\Vectus_tasks\phonebook\vendor\twig\twig\src\Loader\FilesystemLoader.php(150): Twig\Loader\FilesystemLoader->findTemplate('Posts/index.htm...')
#1 C:\xampp\htdocs\Vectus_tasks\phonebook\vendor\twig\twig\src\Environment.php(299): Twig\Loader\FilesystemLoader->getCacheKey('Posts/index.htm...')
#2 C:\xampp\htdocs\Vectus_tasks\phonebook\vendor\twig\twig\src\Environment.php(381): Twig\Environment->getTemplateClass('Posts/index.htm...')
#3 C:\xampp\htdocs\Vectus_tasks\phonebook\vendor\twig\twig\src\Environment.php(359): Twig\Environment->loadTemplate('Posts/index.htm...')
#4 C:\xampp\htdocs\Vectus_tasks\phonebook\vendor\twig\twig\src\Environment.php(318): Twig\Environment->load('Posts/index.htm...')
#5 C:\xampp\htdocs\Vectus_tasks\phonebook\Core\View.php(44): Twig\Environment->render('Posts/index.htm...', Array)
#6 C:\xampp\htdocs\Vectus_tasks\phonebook\App\Controllers\Users.php(21): Core\View::renderTemplate('Posts/index.htm...', Array)
#7 [internal function]: App\Controllers\Users->indexAction()
#8 C:\xampp\htdocs\Vectus_tasks\phonebook\Core\Controller.php(42): call_user_func_array(Array, Array)
#9 C:\xampp\htdocs\Vectus_tasks\phonebook\Core\Router.php(110): Core\Controller->__call('index', Array)
#10 C:\xampp\htdocs\Vectus_tasks\phonebook\public\index.php(34): Core\Router->dispatch('users/index')
#11 {main}
Thrown in 'C:\xampp\htdocs\Vectus_tasks\phonebook\vendor\twig\twig\src\Loader\FilesystemLoader.php' on line 250
[01-May-2019 22:01:17 Europe/Berlin] Uncaught exception: 'Twig\Error\LoaderError' with message 'Unable to find template "Posts/index.html" (looked into: ../App/Views).'
Stack trace: #0 C:\xampp\htdocs\Vectus_tasks\phonebook\vendor\twig\twig\src\Loader\FilesystemLoader.php(150): Twig\Loader\FilesystemLoader->findTemplate('Posts/index.htm...')
#1 C:\xampp\htdocs\Vectus_tasks\phonebook\vendor\twig\twig\src\Environment.php(299): Twig\Loader\FilesystemLoader->getCacheKey('Posts/index.htm...')
#2 C:\xampp\htdocs\Vectus_tasks\phonebook\vendor\twig\twig\src\Environment.php(381): Twig\Environment->getTemplateClass('Posts/index.htm...')
#3 C:\xampp\htdocs\Vectus_tasks\phonebook\vendor\twig\twig\src\Environment.php(359): Twig\Environment->loadTemplate('Posts/index.htm...')
#4 C:\xampp\htdocs\Vectus_tasks\phonebook\vendor\twig\twig\src\Environment.php(318): Twig\Environment->load('Posts/index.htm...')
#5 C:\xampp\htdocs\Vectus_tasks\phonebook\Core\View.php(44): Twig\Environment->render('Posts/index.htm...', Array)
#6 C:\xampp\htdocs\Vectus_tasks\phonebook\App\Controllers\Users.php(21): Core\View::renderTemplate('Posts/index.htm...', Array)
#7 [internal function]: App\Controllers\Users->indexAction()
#8 C:\xampp\htdocs\Vectus_tasks\phonebook\Core\Controller.php(42): call_user_func_array(Array, Array)
#9 C:\xampp\htdocs\Vectus_tasks\phonebook\Core\Router.php(110): Core\Controller->__call('index', Array)
#10 C:\xampp\htdocs\Vectus_tasks\phonebook\public\index.php(34): Core\Router->dispatch('users/index')
#11 {main}
Thrown in 'C:\xampp\htdocs\Vectus_tasks\phonebook\vendor\twig\twig\src\Loader\FilesystemLoader.php' on line 250
