[07-May-2019 09:58:28 Europe/Berlin] Uncaught exception: 'Exception' with message 'User id 4 not found in this controller App\Controllers\Home'
Stack trace: #0 C:\xampp\htdocs\Vectus_tasks\phonebook\Core\Router.php(110): Core\Controller->__call('addContact', Array)
#1 C:\xampp\htdocs\Vectus_tasks\phonebook\public\index.php(45): Core\Router->dispatch('Home/4/addConta...')
#2 {main}
Thrown in 'C:\xampp\htdocs\Vectus_tasks\phonebook\Core\Controller.php' on line 46
[07-May-2019 09:58:28 Europe/Berlin] PHP Fatal error:  Uncaught Error: Call to undefined method Core\View::renderTemplate() in C:\xampp\htdocs\Vectus_tasks\phonebook\Core\Error.php:56
Stack trace:
#0 [internal function]: Core\Error::exceptionHandler(Object(Exception))
#1 {main}
  thrown in C:\xampp\htdocs\Vectus_tasks\phonebook\Core\Error.php on line 56
[07-May-2019 10:04:15 Europe/Berlin] Uncaught exception: 'Exception' with message 'No route matched.'
Stack trace: #0 C:\xampp\htdocs\Vectus_tasks\phonebook\public\index.php(45): Core\Router->dispatch('home/2')
#1 {main}
Thrown in 'C:\xampp\htdocs\Vectus_tasks\phonebook\Core\Router.php' on line 118
[07-May-2019 10:04:15 Europe/Berlin] PHP Fatal error:  Uncaught Error: Call to undefined method Core\View::renderTemplate() in C:\xampp\htdocs\Vectus_tasks\phonebook\Core\Error.php:56
Stack trace:
#0 [internal function]: Core\Error::exceptionHandler(Object(Exception))
#1 {main}
  thrown in C:\xampp\htdocs\Vectus_tasks\phonebook\Core\Error.php on line 56
[07-May-2019 10:05:59 Europe/Berlin] Uncaught exception: 'Exception' with message 'No route matched.'
Stack trace: #0 C:\xampp\htdocs\Vectus_tasks\phonebook\public\index.php(45): Core\Router->dispatch('home/2')
#1 {main}
Thrown in 'C:\xampp\htdocs\Vectus_tasks\phonebook\Core\Router.php' on line 118
[07-May-2019 10:07:23 Europe/Berlin] Uncaught exception: 'Exception' with message 'No route matched.'
Stack trace: #0 C:\xampp\htdocs\Vectus_tasks\phonebook\public\index.php(45): Core\Router->dispatch('home/2')
#1 {main}
Thrown in 'C:\xampp\htdocs\Vectus_tasks\phonebook\Core\Router.php' on line 118
[07-May-2019 11:12:21 Europe/Berlin] Uncaught exception: 'Exception' with message 'User id 25 not found in this controller App\Controllers\Users'
Stack trace: #0 C:\xampp\htdocs\Vectus_tasks\phonebook\Core\Router.php(110): Core\Controller->__call('myProfile', Array)
#1 C:\xampp\htdocs\Vectus_tasks\phonebook\public\index.php(45): Core\Router->dispatch('Users/25/myProf...')
#2 {main}
Thrown in 'C:\xampp\htdocs\Vectus_tasks\phonebook\Core\Controller.php' on line 46
[07-May-2019 14:13:32 Europe/Berlin] Uncaught exception: 'Exception' with message 'Method asdAction not found in controller App\Controllers\Home'
Stack trace: #0 C:\xampp\htdocs\Vectus_tasks\phonebook\Core\Router.php(110): Core\Controller->__call('asd', Array)
#1 C:\xampp\htdocs\Vectus_tasks\phonebook\public\index.php(45): Core\Router->dispatch('Home/2/asd')
#2 {main}
Thrown in 'C:\xampp\htdocs\Vectus_tasks\phonebook\Core\Controller.php' on line 49
